{
  "version": "0.3.14-fixed",
  "steps": [
    {
      "tag": "CreateField",
      "model": "Person",
      "field": "phone",
      "type": "String",
      "arity": "Optional"
    },
    {
      "tag": "CreateField",
      "model": "Person",
      "field": "phone2",
      "type": "String",
      "arity": "Optional"
    },
    {
      "tag": "DeleteField",
      "model": "Person",
      "field": "phones"
    }
  ]
}