{
  "version": "0.3.14-fixed",
  "steps": [
    {
      "tag": "CreateField",
      "model": "Person",
      "field": "surnameEn",
      "type": "String",
      "arity": "Optional"
    },
    {
      "tag": "CreateField",
      "model": "Person",
      "field": "givenNameEn",
      "type": "String",
      "arity": "Optional"
    },
    {
      "tag": "CreateField",
      "model": "Person",
      "field": "hkid",
      "type": "String",
      "arity": "Optional"
    },
    {
      "tag": "CreateField",
      "model": "Person",
      "field": "firstVisitOn",
      "type": "DateTime",
      "arity": "Optional"
    },
    {
      "tag": "CreateField",
      "model": "Person",
      "field": "joinChurchOn",
      "type": "DateTime",
      "arity": "Optional"
    },
    {
      "tag": "CreateField",
      "model": "Person",
      "field": "baptismOn",
      "type": "DateTime",
      "arity": "Optional"
    },
    {
      "tag": "CreateField",
      "model": "Person",
      "field": "baptismChurch",
      "type": "String",
      "arity": "Optional"
    }
  ]
}